<?xml version="1.0" standalone="yes"?>

<svg version="1.1" viewBox="0.0 0.0 960.0 720.0" fill="none" stroke="none" stroke-linecap="square" stroke-miterlimit="10" xmlns="http://www.w3.org/2000/svg" xmlns:xlink="http://www.w3.org/1999/xlink"><clipPath id="p.0"><path d="m0 0l960.0 0l0 720.0l-960.0 0l0 -720.0z" clip-rule="nonzero"></path></clipPath><g clip-path="url(#p.0)"><path fill="#000000" fill-opacity="0.0" d="m0 0l960.0 0l0 720.0l-960.0 0z" fill-rule="evenodd"></path><path fill="#000000" fill-opacity="0.0" d="m409.04462 334.1824l0 0c0 -29.231934 23.527954 -52.929108 52.551178 -52.929108l0 0c13.937439 0 27.304047 5.576416 37.1593 15.502563c9.855255 9.926147 15.391876 23.388885 15.391876 37.426544l0 0c0 29.231964 -23.527954 52.92914 -52.551178 52.92914l0 0c-29.023224 0 -52.551178 -23.697174 -52.551178 -52.92914zm26.275604 0l0 0c0 14.720367 11.763977 26.653564 26.275574 26.653564c14.511627 0 26.275604 -11.933197 26.275604 -26.653564l0 0c0 -14.720337 -11.763977 -26.653534 -26.275604 -26.653534l0 0c-14.511597 0 -26.275574 11.933197 -26.275574 26.653534z" fill-rule="evenodd"></path><path stroke="#000000" stroke-width="2.0" stroke-linejoin="round" stroke-linecap="butt" d="m409.04462 334.1824l0 0c0 -29.231934 23.527954 -52.929108 52.551178 -52.929108l0 0c13.937439 0 27.304047 5.576416 37.1593 15.502563c9.855255 9.926147 15.391876 23.388885 15.391876 37.426544l0 0c0 29.231964 -23.527954 52.92914 -52.551178 52.92914l0 0c-29.023224 0 -52.551178 -23.697174 -52.551178 -52.92914zm26.275604 0l0 0c0 14.720367 11.763977 26.653564 26.275574 26.653564c14.511627 0 26.275604 -11.933197 26.275604 -26.653564l0 0c0 -14.720337 -11.763977 -26.653534 -26.275604 -26.653534l0 0c-14.511597 0 -26.275574 11.933197 -26.275574 26.653534z" fill-rule="evenodd"></path><path fill="#000000" fill-opacity="0.0" d="m243.02637 169.92519l29.674683 -3.6289368l-6.5118103 8.322845l122.25696 95.5728l6.5118103 -8.322815l3.627411 29.662415l-29.674652 3.6289062l6.5118103 -8.322815l-122.25697 -95.57283l-6.5118103 8.322845z" fill-rule="evenodd"></path><path stroke="#000000" stroke-width="2.0" stroke-linejoin="round" stroke-linecap="butt" d="m243.02637 169.92519l29.674683 -3.6289368l-6.5118103 8.322845l122.25696 95.5728l6.5118103 -8.322815l3.627411 29.662415l-29.674652 3.6289062l6.5118103 -8.322815l-122.25697 -95.57283l-6.5118103 8.322845z" fill-rule="evenodd"></path><path fill="#000000" fill-opacity="0.0" d="m505.44357 370.1181l105.10239 0l0 42.26773l-105.10239 0z" fill-rule="evenodd"></path><path fill="#000000" d="m515.31854 396.56436l3.375 -0.328125q0.296875 1.703125 1.21875 2.5q0.9375 0.796875 2.53125 0.796875q1.671875 0 2.515625 -0.703125q0.859375 -0.71875 0.859375 -1.671875q0 -0.609375 -0.359375 -1.03125q-0.359375 -0.421875 -1.25 -0.75q-0.609375 -0.203125 -2.78125 -0.75q-2.78125 -0.6875 -3.90625 -1.6875q-1.59375 -1.421875 -1.59375 -3.46875q0 -1.3125 0.75 -2.453125q0.75 -1.140625 2.140625 -1.734375q1.40625 -0.59375 3.390625 -0.59375q3.234375 0 4.859375 1.421875q1.640625 1.40625 1.71875 3.78125l-3.46875 0.140625q-0.21875 -1.3125 -0.953125 -1.890625q-0.734375 -0.59375 -2.203125 -0.59375q-1.5 0 -2.359375 0.625q-0.546875 0.40625 -0.546875 1.0625q0 0.609375 0.515625 1.046875q0.65625 0.546875 3.1875 1.15625q2.53125 0.59375 3.734375 1.234375q1.21875 0.640625 1.90625 1.75q0.6875 1.09375 0.6875 2.734375q0 1.46875 -0.828125 2.765625q-0.8125 1.28125 -2.3125 1.921875q-1.5 0.625 -3.75 0.625q-3.25 0 -5.0 -1.5q-1.75 -1.515625 -2.078125 -4.40625zm16.101562 -0.8125q0 -1.640625 0.796875 -3.171875q0.8125 -1.53125 2.296875 -2.34375q1.484375 -0.8125 3.3125 -0.8125q2.828125 0 4.625 1.84375q1.8125 1.828125 1.8125 4.625q0 2.828125 -1.828125 4.6875q-1.828125 1.859375 -4.59375 1.859375q-1.703125 0 -3.265625 -0.765625q-1.546875 -0.78125 -2.359375 -2.265625q-0.796875 -1.5 -0.796875 -3.65625zm3.375 0.1875q0 1.84375 0.875 2.828125q0.875 0.984375 2.171875 0.984375q1.28125 0 2.15625 -0.984375q0.875 -0.984375 0.875 -2.859375q0 -1.828125 -0.875 -2.8125q-0.875 -0.984375 -2.15625 -0.984375q-1.296875 0 -2.171875 0.984375q-0.875 0.984375 -0.875 2.84375zm22.894531 -2.546875l-3.25 0.578125q-0.15625 -0.96875 -0.75 -1.453125q-0.578125 -0.5 -1.5 -0.5q-1.234375 0 -1.96875 0.859375q-0.71875 0.84375 -0.71875 2.828125q0 2.21875 0.734375 3.140625q0.75 0.90625 2.0 0.90625q0.9375 0 1.53125 -0.53125q0.609375 -0.53125 0.84375 -1.828125l3.234375 0.546875q-0.5 2.21875 -1.9375 3.359375q-1.421875 1.140625 -3.828125 1.140625q-2.71875 0 -4.34375 -1.71875q-1.625 -1.734375 -1.625 -4.78125q0 -3.078125 1.625 -4.796875q1.625 -1.71875 4.40625 -1.71875q2.28125 0 3.609375 0.984375q1.34375 0.984375 1.9375 2.984375zm2.3789062 8.765625l0 -17.1875l3.296875 0l0 9.125l3.84375 -4.390625l4.0625 0l-4.25 4.546875l4.546875 7.90625l-3.546875 0l-3.125 -5.59375l-1.53125 1.609375l0 3.984375l-3.296875 0zm20.675781 -3.96875l3.28125 0.5625q-0.640625 1.796875 -2.015625 2.75q-1.359375 0.9375 -3.40625 0.9375q-3.25 0 -4.796875 -2.125q-1.234375 -1.703125 -1.234375 -4.28125q0 -3.09375 1.609375 -4.84375q1.625 -1.765625 4.09375 -1.765625q2.78125 0 4.375 1.84375q1.609375 1.828125 1.546875 5.609375l-8.25 0q0.03125 1.46875 0.796875 2.28125q0.765625 0.8125 1.890625 0.8125q0.78125 0 1.296875 -0.421875q0.53125 -0.421875 0.8125 -1.359375zm0.1875 -3.328125q-0.046875 -1.421875 -0.75 -2.15625q-0.703125 -0.75 -1.703125 -0.75q-1.078125 0 -1.78125 0.78125q-0.703125 0.78125 -0.6875 2.125l4.921875 0zm11.660156 -5.15625l0 2.625l-2.25 0l0 5.015625q0 1.53125 0.0625 1.78125q0.0625 0.25 0.28125 0.421875q0.234375 0.15625 0.5625 0.15625q0.453125 0 1.328125 -0.3125l0.28125 2.546875q-1.15625 0.5 -2.609375 0.5q-0.890625 0 -1.609375 -0.296875q-0.703125 -0.296875 -1.046875 -0.765625q-0.328125 -0.484375 -0.453125 -1.296875q-0.109375 -0.578125 -0.109375 -2.3125l0 -5.4375l-1.515625 0l0 -2.625l1.515625 0l0 -2.46875l3.3125 -1.921875l0 4.390625l2.25 0z" fill-rule="nonzero"></path><path fill="#000000" fill-opacity="0.0" d="m436.99738 422.5252l24.59842 -24.59845l24.59842 24.59845l-12.299194 0l0 143.43304l-24.59842 0l0 -143.43304z" fill-rule="evenodd"></path><path stroke="#000000" stroke-width="2.0" stroke-linejoin="round" stroke-linecap="butt" d="m436.99738 422.5252l24.59842 -24.59845l24.59842 24.59845l-12.299194 0l0 143.43304l-24.59842 0l0 -143.43304z" fill-rule="evenodd"></path><path fill="#000000" fill-opacity="0.0" d="m402.1942 575.5171l0 -187.14963l34.80316 0l0 187.14963z" fill-rule="evenodd"></path><path fill="#000000" d="m434.23422 520.7704l-17.1875 0l0 -6.46875q0 -1.71875 0.171875 -2.625q0.203125 -1.265625 0.796875 -2.109375q0.59375 -0.859375 1.671875 -1.375q1.0625 -0.53125 2.328125 -0.53125q2.203125 0 3.71875 1.40625q1.515625 1.390625 1.515625 5.03125l0 4.40625l6.984375 0l0 2.265625zm-9.015625 -2.265625l0 -4.4375q0 -2.203125 -0.8125 -3.125q-0.828125 -0.9375 -2.3125 -0.9375q-1.078125 0 -1.84375 0.546875q-0.765625 0.546875 -1.015625 1.4375q-0.15625 0.578125 -0.15625 2.125l0 4.390625l6.140625 0zm9.015625 -13.4453125l-12.453125 0l0 -1.890625l1.890625 0q-1.328125 -0.734375 -1.75 -1.34375q-0.421875 -0.625 -0.421875 -1.359375q0 -1.0625 0.6875 -2.171875l1.953125 0.734375q-0.453125 0.765625 -0.453125 1.546875q0 0.6875 0.421875 1.25q0.40625 0.546875 1.140625 0.78125q1.125 0.34375 2.46875 0.34375l6.515625 0l0 2.109375zm-6.21875 -7.2265625q-3.46875 0 -5.125 -1.921875q-1.390625 -1.609375 -1.390625 -3.921875q0 -2.5625 1.6875 -4.1875q1.6875 -1.625 4.640625 -1.625q2.40625 0 3.78125 0.71875q1.375 0.71875 2.140625 2.09375q0.765625 1.375 0.765625 3.0q0 2.625 -1.671875 4.234375q-1.6875 1.609375 -4.828125 1.609375zm0 -2.171875q2.390625 0 3.578125 -1.03125q1.1875 -1.046875 1.1875 -2.640625q0 -1.5625 -1.1875 -2.609375q-1.203125 -1.046875 -3.65625 -1.046875q-2.3125 0 -3.5 1.0625q-1.1875 1.046875 -1.1875 2.59375q0 1.59375 1.1875 2.640625q1.1875 1.03125 3.578125 1.03125zm6.21875 -15.425781l-12.453125 4.734375l0 -2.21875l7.453125 -2.671875q1.21875 -0.4375 2.515625 -0.796875q-0.984375 -0.28125 -2.375 -0.78125l-7.59375 -2.765625l0 -2.171875l12.453125 4.703125l0 1.96875zm-14.75 -8.546875l-2.4375 0l0 -2.109375l2.4375 0l0 2.109375zm14.75 0l-12.453125 0l0 -2.109375l12.453125 0l0 2.109375zm0 -13.394531l-1.578125 0q1.859375 1.1875 1.859375 3.484375q0 1.484375 -0.8125 2.734375q-0.828125 1.25 -2.296875 1.9375q-1.46875 0.671875 -3.390625 0.671875q-1.859375 0 -3.375 -0.609375q-1.515625 -0.625 -2.328125 -1.859375q-0.8125 -1.25 -0.8125 -2.78125q0 -1.125 0.484375 -2.0q0.46875 -0.890625 1.234375 -1.4375l-6.171875 0l0 -2.09375l17.1875 0l0 1.953125zm-6.21875 6.671875q2.390625 0 3.578125 -1.0q1.1875 -1.015625 1.1875 -2.390625q0 -1.390625 -1.125 -2.34375q-1.140625 -0.96875 -3.453125 -0.96875q-2.5625 0 -3.75 0.984375q-1.203125 0.984375 -1.203125 2.421875q0 1.40625 1.15625 2.359375q1.140625 0.9375 3.609375 0.9375zm2.203125 -20.472656l0.28125 -2.171875q1.90625 0.515625 2.96875 1.90625q1.046875 1.390625 1.046875 3.5625q0 2.734375 -1.671875 4.34375q-1.6875 1.59375 -4.734375 1.59375q-3.140625 0 -4.875 -1.609375q-1.734375 -1.625 -1.734375 -4.203125q0 -2.5 1.703125 -4.078125q1.703125 -1.59375 4.78125 -1.59375q0.1875 0 0.5625 0.015625l0 9.28125q2.046875 -0.109375 3.140625 -1.15625q1.09375 -1.046875 1.09375 -2.609375q0 -1.15625 -0.609375 -1.96875q-0.609375 -0.828125 -1.953125 -1.3125zm-3.40625 6.9375l0 -6.953125q-1.5625 0.140625 -2.359375 0.796875q-1.21875 1.0 -1.21875 2.609375q0 1.453125 0.984375 2.453125q0.96875 0.984375 2.59375 1.09375z" fill-rule="nonzero"></path><path fill="#000000" fill-opacity="0.0" d="m309.4395 144.11243l127.55908 103.968506l-26.677185 32.787384l-127.55905 -103.96849z" fill-rule="evenodd"></path><path fill="#000000" d="m297.4057 175.6385l7.8594666 -9.659653l1.4655151 1.1944733l-1.1932373 1.4665222q1.4074707 -0.56622314 2.1460876 -0.5084686q0.7507019 0.06762695 1.3199463 0.5315857q0.8236084 0.6712799 1.2496033 1.9054565l-1.8019104 1.0510254q-0.3074646 -0.8351898 -0.9130554 -1.3287811q-0.53289795 -0.43434143 -1.2351685 -0.4624939q-0.68032837 -0.030380249 -1.32547 0.39118958q-0.97647095 0.65545654 -1.8245544 1.6977844l-4.1121826 5.0540466l-1.6350403 -1.3326874zm15.354462 7.3343353l1.506012 1.590332q-1.6027832 1.1528778 -3.3512878 1.0984497q-1.738617 -0.06652832 -3.4221497 -1.4387054q-2.1195068 -1.7275391 -2.3118286 -4.041168q-0.17037964 -2.3158722 1.752594 -4.6792755q1.9821167 -2.4361267 4.3242188 -2.7646637q2.3542175 -0.31866455 4.3526306 1.3101654q1.9378662 1.5794678 2.0862427 3.8975983q0.16049194 2.3279877 -1.782196 4.715637q-0.11834717 0.14543152 -0.36712646 0.42645264l-7.194275 -5.863785q-1.2070618 1.6568146 -1.0858765 3.166626q0.1211853 1.5097961 1.3323364 2.4969635q0.89627075 0.7305145 1.910675 0.77116394q1.0264893 0.05050659 2.2500305 -0.685791zm-3.2277832 -7.0251923l5.389679 4.3928986q0.8771057 -1.3008423 0.8713684 -2.3335724q-0.0059509277 -1.5771484 -1.2534485 -2.593933q-1.1263733 -0.9180603 -2.5227966 -0.7862854q-1.3744202 0.1295166 -2.4848022 1.3208923zm11.691254 17.12851q-1.5296326 0.0231781 -2.6437073 -0.34059143q-1.092102 -0.36602783 -2.0489197 -1.1458893q-1.5866089 -1.2931976 -1.8153992 -2.7697754q-0.2166748 -1.4666901 0.7694397 -2.6786957q0.5818176 -0.71507263 1.3700867 -1.0401764q0.800354 -0.31523132 1.6071167 -0.24221802q0.8166504 0.06088257 1.6185913 0.41215515q0.58306885 0.27366638 1.6506042 0.9421997q2.1835327 1.3765564 3.3823853 1.809433q0.27835083 -0.31736755 0.3572693 -0.41433716q0.80862427 -0.99383545 0.6715393 -1.7909088q-0.1640625 -1.0609741 -1.3994446 -2.0678864q-1.1627197 -0.9476929 -2.0430298 -0.9798279q-0.87042236 -0.044265747 -1.9750977 0.76875305l-1.4212341 -1.521225q1.0562439 -0.85250854 2.0655823 -1.0780029q1.0093689 -0.22550964 2.230194 0.2051239q1.2306824 0.41851807 2.47818 1.4352875q1.2353821 1.0069122 1.7738647 1.9295807q0.53845215 0.92266846 0.53692627 1.6672668q0.008331299 0.73246765 -0.39855957 1.5296478q-0.26260376 0.47131348 -1.150116 1.5621185l-1.7750549 2.1815948q-1.8539429 2.2785645 -2.2380066 2.9734192q-0.38406372 0.6948395 -0.5348816 1.4991608l-1.7077332 -1.3919067q0.15982056 -0.71635437 0.6394043 -1.4542999zm2.8448792 -3.7688446q-1.1920776 -0.36689758 -3.1795654 -1.5635223q-1.1235962 -0.6739044 -1.6954346 -0.83761597q-0.5597229 -0.15383911 -1.0758057 0.01008606q-0.5039978 0.17378235 -0.8491516 0.59799194q-0.5325012 0.65448 -0.40304565 1.485672q0.14157104 0.8410492 1.0983887 1.6209106q0.94470215 0.7700043 2.0187988 0.96009827q1.0740967 0.19007874 1.9950256 -0.24858093q0.72006226 -0.3403473 1.5977478 -1.4190369l0.493042 -0.6060028zm6.4986877 13.359879l0.9960022 -1.2241211q-2.0939941 0.69203186 -3.8743896 -0.7591095q-1.1506042 -0.9378052 -1.6067505 -2.357788q-0.44625854 -1.4320984 -0.052215576 -3.005722q0.40618896 -1.5637665 1.6191101 -3.054535q1.173523 -1.442276 2.602417 -2.2329254q1.4410095 -0.780777 2.910614 -0.6311493q1.48172 0.15948486 2.6686401 1.1269226q0.8720398 0.7107544 1.2445984 1.6392975q0.39450073 0.9262848 0.33520508 1.8656769l3.8952332 -4.7874146l1.6229553 1.322815l-10.847473 13.332016l-1.5139465 -1.233963zm-1.2468262 -9.038986q-1.5087891 1.8543701 -1.4831238 3.4072723q0.03781128 1.5627899 1.1036377 2.431488q1.0779114 0.8785858 2.5267334 0.6081238q1.4707947 -0.27272034 2.9302673 -2.0664825q1.617279 -1.9876862 1.6036987 -3.530716q-0.003692627 -1.5551605 -1.117981 -2.4633636q-1.0900269 -0.888443 -2.5585632 -0.59373474q-1.4465942 0.29244995 -3.0046692 2.2074127zm3.9208374 11.601456l15.075928 -10.631393l1.3080444 1.0661316l-15.063812 10.641266l-1.3201599 -1.076004zm8.35965 6.4306335l4.9163513 -12.058472l1.6835327 1.3721619l-2.9980469 6.8289185l-1.1170654 2.5364838q0.16455078 -0.12794495 2.113861 -1.5829468l6.143402 -4.4063416l1.6835022 1.3721619l-3.1146545 6.774185l-1.0243225 2.249237l2.0757751 -1.412384l6.193268 -4.2447815l1.5866089 1.2931824l-10.875275 7.2016144l-1.6956177 -1.3820496l3.16568 -7.0349426l0.9778137 -1.9444733l-8.00708 5.830353l-1.7077332 -1.3919067zm11.642242 9.489166l7.859497 -9.659653l1.4654846 1.1944733l-1.1932068 1.4665222q1.4074707 -0.5662384 2.1460571 -0.5084839q0.7507324 0.06762695 1.3199768 0.53160095q0.8235779 0.67126465 1.2496033 1.9054413l-1.8019104 1.0510254q-0.30749512 -0.8351898 -0.9130554 -1.3287659q-0.53292847 -0.4343567 -1.235199 -0.4624939q-0.68029785 -0.030395508 -1.3254395 0.39117432q-0.97647095 0.65545654 -1.8245544 1.6977844l-4.1121826 5.0540466l-1.6350708 -1.3326721zm15.528412 -6.3721924l1.5383606 -1.8907166l1.6350708 1.3326721l-1.5383606 1.8907166l-1.6350708 -1.3326721zm-9.309113 11.441299l7.859497 -9.659653l1.6350708 1.3326721l-7.859497 9.659653l-1.6350708 -1.3326721zm8.8871155 4.8044586l-0.9312744 1.6397247q-0.8185425 -0.4051361 -1.3635864 -0.84935q-0.89624023 -0.7305145 -1.1660156 -1.4140167q-0.24780273 -0.68574524 -0.078948975 -1.3141174q0.18093872 -0.618515 1.374176 -2.0850372l4.5263367 -5.56308l-1.1990356 -0.9772949l1.0354309 -1.2726135l1.1990356 0.9773102l1.942688 -2.3876495l2.4217224 0.3410797l-2.741455 3.3693695l1.6471863 1.3425446l-1.0354309 1.2726135l-1.6471863 -1.3425598l-4.5953674 5.647934q-0.57196045 0.70295715 -0.6548462 0.97810364q-0.06088257 0.27288818 0.034301758 0.5520325q0.105041504 0.2670288 0.4683838 0.56318665q0.26644897 0.21717834 0.7638855 0.52182007zm9.549774 5.042221l1.5059814 1.5903168q-1.6027527 1.1528778 -3.3512573 1.098465q-1.7386475 -0.06654358 -3.4221497 -1.4387054q-2.1195374 -1.7275391 -2.3118591 -4.041168q-0.17034912 -2.3158722 1.752594 -4.6792755q1.9821472 -2.4361267 4.3242493 -2.7646637q2.3542175 -0.31866455 4.3526306 1.3101654q1.9378357 1.5794678 2.0862122 3.897583q0.16052246 2.328003 -1.7821655 4.715637q-0.11834717 0.14544678 -0.36712646 0.42645264l-7.194275 -5.863785q-1.2070618 1.6568298 -1.0858765 3.166626q0.1211853 1.5098114 1.3323364 2.4969788q0.89627075 0.73049927 1.9106445 0.7711487q1.0265198 0.05052185 2.250061 -0.68577576zm-3.2277832 -7.0251923l5.3896484 4.3928986q0.87713623 -1.3008423 0.8713684 -2.3335724q-0.0059509277 -1.5771484 -1.2534485 -2.593933q-1.1263733 -0.91807556 -2.522766 -0.78630066q-1.3744507 0.12953186 -2.4848022 1.3209076z" fill-rule="nonzero"></path><path fill="#000000" fill-opacity="0.0" d="m24.076115 577.1575l913.7638 0l0 126.834656l-913.7638 0z" fill-rule="evenodd"></path><path stroke="#000000" stroke-width="2.0" stroke-linejoin="round" stroke-linecap="butt" d="m24.076115 577.1575l913.7638 0l0 126.834656l-913.7638 0z" fill-rule="evenodd"></path><path fill="#000000" d="m259.458 641.02167q0 -7.125 3.828125 -11.15625q3.828125 -4.03125 9.875 -4.03125q3.96875 0 7.15625 1.890625q3.1875 1.890625 4.84375 5.28125q1.671875 3.390625 1.671875 7.6875q0 4.359375 -1.765625 7.796875q-1.75 3.4375 -4.96875 5.203125q-3.21875 1.765625 -6.953125 1.765625q-4.046875 0 -7.234375 -1.953125q-3.171875 -1.953125 -4.8125 -5.328125q-1.640625 -3.375 -1.640625 -7.15625zm3.90625 0.0625q0 5.171875 2.78125 8.15625q2.78125 2.984375 6.984375 2.984375q4.28125 0 7.03125 -3.0q2.765625 -3.015625 2.765625 -8.546875q0 -3.5 -1.1875 -6.109375q-1.171875 -2.609375 -3.453125 -4.03125q-2.265625 -1.4375 -5.09375 -1.4375q-4.03125 0 -6.9375 2.765625q-2.890625 2.75 -2.890625 9.21875zm27.910156 21.84375l0 -28.703125l3.203125 0l0 2.703125q1.125 -1.578125 2.546875 -2.375q1.4375 -0.796875 3.46875 -0.796875q2.65625 0 4.6875 1.375q2.03125 1.359375 3.0625 3.859375q1.03125 2.484375 1.03125 5.453125q0 3.1875 -1.140625 5.734375q-1.140625 2.546875 -3.328125 3.90625q-2.171875 1.359375 -4.5625 1.359375q-1.765625 0 -3.171875 -0.734375q-1.390625 -0.75 -2.28125 -1.890625l0 10.109375l-3.515625 0zm3.1875 -18.203125q0 4.0 1.609375 5.921875q1.625 1.90625 3.9375 1.90625q2.34375 0 4.0 -1.984375q1.671875 -1.984375 1.671875 -6.140625q0 -3.96875 -1.625 -5.9375q-1.625 -1.96875 -3.890625 -1.96875q-2.25 0 -3.984375 2.09375q-1.71875 2.09375 -1.71875 6.109375zm33.26172 3.5625l3.625 0.453125q-0.859375 3.1875 -3.1875 4.953125q-2.3125 1.75 -5.9375 1.75q-4.546875 0 -7.21875 -2.796875q-2.65625 -2.8125 -2.65625 -7.875q0 -5.234375 2.6875 -8.125q2.703125 -2.890625 7.0 -2.890625q4.15625 0 6.796875 2.84375q2.640625 2.828125 2.640625 7.96875q0 0.3125 -0.03125 0.9375l-15.46875 0q0.203125 3.40625 1.9375 5.234375q1.734375 1.8125 4.34375 1.8125q1.921875 0 3.28125 -1.015625q1.375 -1.015625 2.1875 -3.25zm-11.546875 -5.671875l11.578125 0q-0.234375 -2.625 -1.328125 -3.9375q-1.671875 -2.03125 -4.359375 -2.03125q-2.421875 0 -4.078125 1.625q-1.640625 1.625 -1.8125 4.34375zm19.542969 12.359375l0 -20.75l3.171875 0l0 3.15625q1.203125 -2.21875 2.234375 -2.921875q1.03125 -0.703125 2.25 -0.703125q1.78125 0 3.625 1.140625l-1.21875 3.265625q-1.28125 -0.765625 -2.578125 -0.765625q-1.15625 0 -2.078125 0.703125q-0.90625 0.6875 -1.296875 1.90625q-0.59375 1.875 -0.59375 4.109375l0 10.859375l-3.515625 0zm26.898438 -2.5625q-1.953125 1.65625 -3.765625 2.34375q-1.796875 0.6875 -3.875 0.6875q-3.40625 0 -5.25 -1.671875q-1.828125 -1.671875 -1.828125 -4.265625q0 -1.53125 0.6875 -2.78125q0.6875 -1.265625 1.8125 -2.015625q1.125 -0.765625 2.53125 -1.15625q1.03125 -0.28125 3.125 -0.53125q4.265625 -0.515625 6.265625 -1.21875q0.03125 -0.71875 0.03125 -0.90625q0 -2.15625 -1.0 -3.03125q-1.34375 -1.1875 -4.0 -1.1875q-2.484375 0 -3.671875 0.875q-1.171875 0.859375 -1.75 3.0625l-3.4375 -0.46875q0.46875 -2.203125 1.546875 -3.5625q1.078125 -1.359375 3.109375 -2.09375q2.03125 -0.734375 4.703125 -0.734375q2.65625 0 4.3125 0.625q1.671875 0.625 2.453125 1.578125q0.78125 0.953125 1.09375 2.390625q0.171875 0.90625 0.171875 3.25l0 4.6875q0 4.890625 0.21875 6.203125q0.234375 1.296875 0.890625 2.484375l-3.671875 0q-0.546875 -1.09375 -0.703125 -2.5625zm-0.296875 -7.84375q-1.90625 0.78125 -5.734375 1.328125q-2.171875 0.3125 -3.078125 0.703125q-0.890625 0.390625 -1.375 1.140625q-0.484375 0.75 -0.484375 1.671875q0 1.40625 1.0625 2.34375q1.0625 0.9375 3.109375 0.9375q2.03125 0 3.609375 -0.890625q1.59375 -0.890625 2.328125 -2.4375q0.5625 -1.1875 0.5625 -3.515625l0 -1.28125zm16.683594 7.265625l0.515625 3.09375q-1.484375 0.328125 -2.65625 0.328125q-1.921875 0 -2.984375 -0.609375q-1.046875 -0.609375 -1.484375 -1.59375q-0.421875 -0.984375 -0.421875 -4.15625l0 -11.9375l-2.578125 0l0 -2.734375l2.578125 0l0 -5.125l3.5 -2.109375l0 7.234375l3.53125 0l0 2.734375l-3.53125 0l0 12.140625q0 1.5 0.1875 1.9375q0.1875 0.421875 0.59375 0.671875q0.421875 0.25 1.203125 0.25q0.59375 0 1.546875 -0.125zm3.4570312 -21.453125l0 -4.046875l3.515625 0l0 4.046875l-3.515625 0zm0 24.59375l0 -20.75l3.515625 0l0 20.75l-3.515625 0zm8.871094 0l0 -20.75l3.15625 0l0 2.953125q2.296875 -3.421875 6.609375 -3.421875q1.875 0 3.4375 0.6875q1.578125 0.671875 2.359375 1.765625q0.78125 1.09375 1.09375 2.59375q0.203125 0.96875 0.203125 3.421875l0 12.75l-3.515625 0l0 -12.625q0 -2.140625 -0.421875 -3.203125q-0.40625 -1.0625 -1.453125 -1.703125q-1.046875 -0.640625 -2.453125 -0.640625q-2.234375 0 -3.875 1.4375q-1.625 1.421875 -1.625 5.40625l0 11.328125l-3.515625 0zm21.605469 1.71875l3.40625 0.515625q0.21875 1.578125 1.203125 2.296875q1.296875 0.984375 3.5625 0.984375q2.453125 0 3.78125 -0.984375q1.328125 -0.96875 1.796875 -2.734375q0.265625 -1.078125 0.25 -4.515625q-2.3125 2.71875 -5.75 2.71875q-4.265625 0 -6.609375 -3.078125q-2.34375 -3.09375 -2.34375 -7.40625q0 -2.96875 1.0625 -5.484375q1.078125 -2.515625 3.109375 -3.875q2.046875 -1.375 4.8125 -1.375q3.671875 0 6.046875 2.96875l0 -2.5l3.25 0l0 17.9375q0 4.84375 -1.0 6.859375q-0.984375 2.03125 -3.125 3.203125q-2.125 1.171875 -5.25 1.171875q-3.71875 0 -6.0 -1.671875q-2.28125 -1.671875 -2.203125 -5.03125zm2.90625 -12.46875q0 4.09375 1.609375 5.96875q1.625 1.875 4.078125 1.875q2.421875 0 4.0625 -1.859375q1.640625 -1.875 1.640625 -5.859375q0 -3.8125 -1.703125 -5.734375q-1.6875 -1.9375 -4.0625 -1.9375q-2.34375 0 -3.984375 1.90625q-1.640625 1.890625 -1.640625 5.640625zm30.25 1.546875l3.578125 -0.3125q0.25 2.15625 1.171875 3.53125q0.9375 1.375 2.890625 2.234375q1.953125 0.84375 4.390625 0.84375q2.171875 0 3.828125 -0.640625q1.65625 -0.65625 2.46875 -1.78125q0.8125 -1.125 0.8125 -2.453125q0 -1.34375 -0.78125 -2.34375q-0.78125 -1.015625 -2.578125 -1.6875q-1.15625 -0.453125 -5.109375 -1.390625q-3.9375 -0.953125 -5.515625 -1.796875q-2.046875 -1.078125 -3.0625 -2.671875q-1.0 -1.59375 -1.0 -3.5625q0 -2.171875 1.234375 -4.046875q1.234375 -1.890625 3.59375 -2.859375q2.359375 -0.984375 5.25 -0.984375q3.1875 0 5.609375 1.03125q2.4375 1.015625 3.75 3.015625q1.3125 1.984375 1.40625 4.515625l-3.640625 0.265625q-0.28125 -2.71875 -1.984375 -4.09375q-1.6875 -1.390625 -4.984375 -1.390625q-3.4375 0 -5.015625 1.265625q-1.5625 1.25 -1.5625 3.03125q0 1.546875 1.109375 2.53125q1.09375 1.0 5.703125 2.046875q4.625 1.046875 6.34375 1.828125q2.5 1.15625 3.6875 2.921875q1.203125 1.765625 1.203125 4.0625q0 2.296875 -1.3125 4.3125q-1.3125 2.015625 -3.765625 3.140625q-2.4375 1.125 -5.515625 1.125q-3.875 0 -6.515625 -1.125q-2.625 -1.140625 -4.125 -3.40625q-1.484375 -2.28125 -1.5625 -5.15625zm27.367188 17.1875l-0.390625 -3.296875q1.15625 0.3125 2.015625 0.3125q1.171875 0 1.875 -0.390625q0.703125 -0.390625 1.140625 -1.09375q0.34375 -0.53125 1.078125 -2.609375q0.09375 -0.296875 0.3125 -0.859375l-7.875 -20.796875l3.796875 0l4.3125 12.015625q0.84375 2.28125 1.5 4.8125q0.609375 -2.421875 1.453125 -4.734375l4.4375 -12.09375l3.515625 0l-7.890625 21.109375q-1.28125 3.40625 -1.984375 4.703125q-0.9375 1.734375 -2.15625 2.546875q-1.203125 0.8125 -2.875 0.8125q-1.015625 0 -2.265625 -0.4375zm18.75 -14.171875l3.46875 -0.546875q0.296875 2.078125 1.625 3.203125q1.34375 1.109375 3.75 1.109375q2.421875 0 3.59375 -0.984375q1.171875 -0.984375 1.171875 -2.3125q0 -1.203125 -1.03125 -1.875q-0.71875 -0.46875 -3.59375 -1.203125q-3.875 -0.96875 -5.375 -1.671875q-1.484375 -0.71875 -2.265625 -1.984375q-0.765625 -1.265625 -0.765625 -2.78125q0 -1.390625 0.640625 -2.5625q0.640625 -1.1875 1.734375 -1.96875q0.8125 -0.609375 2.21875 -1.03125q1.421875 -0.421875 3.046875 -0.421875q2.4375 0 4.28125 0.703125q1.859375 0.703125 2.734375 1.90625q0.875 1.203125 1.203125 3.21875l-3.4375 0.46875q-0.234375 -1.609375 -1.359375 -2.5q-1.109375 -0.90625 -3.171875 -0.90625q-2.421875 0 -3.453125 0.8125q-1.03125 0.796875 -1.03125 1.875q0 0.671875 0.421875 1.21875q0.4375 0.578125 1.359375 0.9375q0.515625 0.203125 3.09375 0.90625q3.734375 1.0 5.203125 1.640625q1.484375 0.625 2.3125 1.84375q0.84375 1.203125 0.84375 3.0q0 1.75 -1.03125 3.3125q-1.015625 1.546875 -2.953125 2.40625q-1.921875 0.84375 -4.375 0.84375q-4.03125 0 -6.15625 -1.671875q-2.125 -1.6875 -2.703125 -4.984375zm29.078125 3.046875l0.515625 3.09375q-1.484375 0.328125 -2.65625 0.328125q-1.921875 0 -2.984375 -0.609375q-1.046875 -0.609375 -1.484375 -1.59375q-0.421875 -0.984375 -0.421875 -4.15625l0 -11.9375l-2.578125 0l0 -2.734375l2.578125 0l0 -5.125l3.5 -2.109375l0 7.234375l3.53125 0l0 2.734375l-3.53125 0l0 12.140625q0 1.5 0.1875 1.9375q0.1875 0.421875 0.59375 0.671875q0.421875 0.25 1.203125 0.25q0.59375 0 1.546875 -0.125zm17.644531 -3.546875l3.625 0.453125q-0.859375 3.1875 -3.1875 4.953125q-2.3125 1.75 -5.9375 1.75q-4.546875 0 -7.21875 -2.796875q-2.65625 -2.8125 -2.65625 -7.875q0 -5.234375 2.6875 -8.125q2.703125 -2.890625 7.0 -2.890625q4.15625 0 6.796875 2.84375q2.640625 2.828125 2.640625 7.96875q0 0.3125 -0.03125 0.9375l-15.46875 0q0.203125 3.40625 1.9375 5.234375q1.734375 1.8125 4.34375 1.8125q1.921875 0 3.28125 -1.015625q1.375 -1.015625 2.1875 -3.25zm-11.546875 -5.671875l11.578125 0q-0.234375 -2.625 -1.328125 -3.9375q-1.671875 -2.03125 -4.359375 -2.03125q-2.421875 0 -4.078125 1.625q-1.640625 1.625 -1.8125 4.34375zm19.589844 12.359375l0 -20.75l3.140625 0l0 2.921875q0.984375 -1.53125 2.59375 -2.453125q1.625 -0.9375 3.703125 -0.9375q2.296875 0 3.765625 0.96875q1.484375 0.953125 2.09375 2.671875q2.453125 -3.640625 6.40625 -3.640625q3.078125 0 4.734375 1.71875q1.671875 1.703125 1.671875 5.265625l0 14.234375l-3.5 0l0 -13.0625q0 -2.109375 -0.34375 -3.03125q-0.34375 -0.9375 -1.25 -1.5q-0.890625 -0.578125 -2.09375 -0.578125q-2.1875 0 -3.640625 1.46875q-1.4375 1.453125 -1.4375 4.65625l0 12.046875l-3.515625 0l0 -13.484375q0 -2.34375 -0.859375 -3.515625q-0.859375 -1.171875 -2.8125 -1.171875q-1.484375 0 -2.75 0.78125q-1.265625 0.78125 -1.828125 2.296875q-0.5625 1.5 -0.5625 4.328125l0 10.765625l-3.515625 0zm44.73047 0l0 -28.640625l3.78125 0l0 14.203125l14.21875 -14.203125l5.140625 0l-12.015625 11.609375l12.546875 17.03125l-5.0 0l-10.203125 -14.5l-4.6875 4.578125l0 9.921875l-3.78125 0zm40.585938 -6.6875l3.625 0.453125q-0.859375 3.1875 -3.1875 4.953125q-2.3125 1.75 -5.9375 1.75q-4.546875 0 -7.21875 -2.796875q-2.65625 -2.8125 -2.65625 -7.875q0 -5.234375 2.6875 -8.125q2.703125 -2.890625 7.0 -2.890625q4.15625 0 6.796875 2.84375q2.640625 2.828125 2.640625 7.96875q0 0.3125 -0.03125 0.9375l-15.46875 0q0.203125 3.40625 1.9375 5.234375q1.734375 1.8125 4.34375 1.8125q1.921875 0 3.28125 -1.015625q1.375 -1.015625 2.1875 -3.25zm-11.546875 -5.671875l11.578125 0q-0.234375 -2.625 -1.328125 -3.9375q-1.671875 -2.03125 -4.359375 -2.03125q-2.421875 0 -4.078125 1.625q-1.640625 1.625 -1.8125 4.34375zm19.542969 12.359375l0 -20.75l3.171875 0l0 3.15625q1.203125 -2.21875 2.234375 -2.921875q1.03125 -0.703125 2.25 -0.703125q1.78125 0 3.625 1.140625l-1.21875 3.265625q-1.28125 -0.765625 -2.578125 -0.765625q-1.15625 0 -2.078125 0.703125q-0.90625 0.6875 -1.296875 1.90625q-0.59375 1.875 -0.59375 4.109375l0 10.859375l-3.515625 0zm13.3671875 0l0 -20.75l3.15625 0l0 2.953125q2.296875 -3.421875 6.609375 -3.421875q1.875 0 3.4375 0.6875q1.578125 0.671875 2.359375 1.765625q0.78125 1.09375 1.09375 2.59375q0.203125 0.96875 0.203125 3.421875l0 12.75l-3.515625 0l0 -12.625q0 -2.140625 -0.421875 -3.203125q-0.40625 -1.0625 -1.453125 -1.703125q-1.046875 -0.640625 -2.453125 -0.640625q-2.234375 0 -3.875 1.4375q-1.625 1.421875 -1.625 5.40625l0 11.328125l-3.515625 0zm36.44922 -6.6875l3.625 0.453125q-0.859375 3.1875 -3.1875 4.953125q-2.3125 1.75 -5.9375 1.75q-4.546875 0 -7.21875 -2.796875q-2.65625 -2.8125 -2.65625 -7.875q0 -5.234375 2.6875 -8.125q2.703125 -2.890625 7.0 -2.890625q4.15625 0 6.796875 2.84375q2.640625 2.828125 2.640625 7.96875q0 0.3125 -0.03125 0.9375l-15.46875 0q0.203125 3.40625 1.9375 5.234375q1.734375 1.8125 4.34375 1.8125q1.921875 0 3.28125 -1.015625q1.375 -1.015625 2.1875 -3.25zm-11.546875 -5.671875l11.578125 0q-0.234375 -2.625 -1.328125 -3.9375q-1.671875 -2.03125 -4.359375 -2.03125q-2.421875 0 -4.078125 1.625q-1.640625 1.625 -1.8125 4.34375zm19.511719 12.359375l0 -28.640625l3.515625 0l0 28.640625l-3.515625 0z" fill-rule="nonzero"></path><path fill="#000000" fill-opacity="0.0" d="m26.419947 103.61286l0 0c0 13.691879 44.397842 24.791344 99.16536 24.791344c54.76751 0 99.16535 -11.099464 99.16535 -24.791344l0 250.41733c0 13.691895 -44.397842 24.791351 -99.16535 24.791351c-54.767517 0 -99.16536 -11.099457 -99.16536 -24.791351z" fill-rule="evenodd"></path><path fill="#000000" fill-opacity="0.0" d="m26.419947 103.61286l0 0c0 -13.691879 44.397842 -24.791336 99.16536 -24.791336c54.76751 0 99.16535 11.099457 99.16535 24.791336l0 0c0 13.691879 -44.397842 24.791344 -99.16535 24.791344c-54.767517 0 -99.16536 -11.099464 -99.16536 -24.791344z" fill-rule="evenodd"></path><path fill="#000000" fill-opacity="0.0" d="m224.75066 103.61286l0 0c0 13.691879 -44.397842 24.791344 -99.16535 24.791344c-54.767517 0 -99.16536 -11.099464 -99.16536 -24.791344l0 0c0 -13.691879 44.397842 -24.791336 99.16536 -24.791336c54.76751 0 99.16535 11.099457 99.16535 24.791336l0 250.41733c0 13.691895 -44.397842 24.791351 -99.16535 24.791351c-54.767517 0 -99.16536 -11.099457 -99.16536 -24.791351l0 -250.41733" fill-rule="evenodd"></path><path fill="#ffffff" fill-opacity="0.4" d="m26.419947 103.61286l0 0c0 -13.691879 44.397842 -24.791336 99.16536 -24.791336c54.76751 0 99.16535 11.099457 99.16535 24.791336l0 0c0 13.691879 -44.397842 24.791344 -99.16535 24.791344c-54.767517 0 -99.16536 -11.099464 -99.16536 -24.791344z" fill-rule="evenodd"></path><path stroke="#000000" stroke-width="2.0" stroke-linejoin="round" stroke-linecap="butt" d="m224.75066 103.61286l0 0c0 13.691879 -44.397842 24.791344 -99.16535 24.791344c-54.767517 0 -99.16536 -11.099464 -99.16536 -24.791344l0 0c0 -13.691879 44.397842 -24.791336 99.16536 -24.791336c54.76751 0 99.16535 11.099457 99.16535 24.791336l0 250.41733c0 13.691895 -44.397842 24.791351 -99.16535 24.791351c-54.767517 0 -99.16536 -11.099457 -99.16536 -24.791351l0 -250.41733" fill-rule="evenodd"></path><path fill="#000000" d="m47.999363 252.9372l0 -22.90625l8.640625 0q2.28125 0 3.484375 0.21875q1.6875 0.28125 2.828125 1.078125q1.1406212 0.78125 1.8281212 2.203125q0.703125 1.421875 0.703125 3.125q0 2.921875 -1.8593712 4.953125q-1.859375 2.015625 -6.71875 2.015625l-5.875 0l0 9.3125l-3.03125 0zm3.03125 -12.015625l5.921875 0q2.9375 0 4.171875 -1.09375q1.234375 -1.09375 1.234375 -3.078125q0 -1.4375 -0.734375 -2.453125q-0.71875 -1.03125 -1.90625 -1.359375q-0.765625 -0.203125 -2.828125 -0.203125l-5.859375 0l0 8.1875zm18.828121 12.015625l0 -22.90625l3.03125 0l0 22.90625l-3.03125 0zm8.375 0l0 -22.90625l7.890625 0q2.671875 0 4.078125 0.328125q1.96875 0.453125 3.359375 1.640625q1.8125 1.53125 2.703125 3.921875q0.90625 2.375 0.90625 5.4375q0 2.609375 -0.609375 4.625q-0.609375 2.015625 -1.5625 3.34375q-0.953125 1.3125 -2.09375 2.078125q-1.125 0.75 -2.734375 1.140625q-1.59375 0.390625 -3.671875 0.390625l-8.265625 0zm3.03125 -2.703125l4.890625 0q2.265625 0 3.546875 -0.421875q1.296875 -0.421875 2.0625 -1.1875q1.078125 -1.078125 1.671875 -2.890625q0.609375 -1.828125 0.609375 -4.421875q0 -3.59375 -1.1875 -5.515625q-1.171875 -1.9375 -2.859375 -2.59375q-1.21875 -0.46875 -3.921875 -0.46875l-4.8125 0l0 17.5zm20.5 -10.6875l0 -3.203125l3.203125 0l0 3.203125l-3.203125 0zm0 13.390625l0 -3.203125l3.203125 0l0 3.203125l-3.203125 0zm31.0 -2.703125l0 2.703125l-15.140625 0q-0.03125 -1.015625 0.328125 -1.953125q0.578125 -1.546875 1.84375 -3.046875q1.28125 -1.5 3.6875 -3.46875q3.734375 -3.0625 5.046875 -4.84375q1.3125 -1.796875 1.3125 -3.390625q0 -1.671875 -1.203125 -2.8125q-1.1875 -1.15625 -3.109375 -1.15625q-2.03125 0 -3.25 1.21875q-1.21875 1.21875 -1.234375 3.375l-2.890625 -0.296875q0.296875 -3.234375 2.234375 -4.921875q1.9375 -1.703125 5.203125 -1.703125q3.296875 0 5.21875 1.828125q1.921875 1.828125 1.921875 4.53125q0 1.375 -0.5625 2.703125q-0.5625 1.328125 -1.875 2.796875q-1.296875 1.46875 -4.328125 4.03125q-2.53125 2.125 -3.25 2.890625q-0.71875 0.75 -1.1875 1.515625l11.234375 0zm17.796875 0l0 2.703125l-15.140625 0q-0.03125 -1.015625 0.328125 -1.953125q0.578125 -1.546875 1.84375 -3.046875q1.28125 -1.5 3.6875 -3.46875q3.734375 -3.0625 5.046875 -4.84375q1.3125 -1.796875 1.3125 -3.390625q0 -1.671875 -1.203125 -2.8125q-1.1875 -1.15625 -3.109375 -1.15625q-2.03125 0 -3.25 1.21875q-1.21875 1.21875 -1.234375 3.375l-2.890625 -0.296875q0.296875 -3.234375 2.234375 -4.921875q1.9375 -1.703125 5.203125 -1.703125q3.296875 0 5.21875 1.828125q1.921875 1.828125 1.921875 4.53125q0 1.375 -0.5625 2.703125q-0.5625 1.328125 -1.875 2.796875q-1.296875 1.46875 -4.328125 4.03125q-2.53125 2.125 -3.25 2.890625q-0.71875 0.75 -1.1875 1.515625l11.234375 0zm3.203125 -17.203125l0 -2.703125l14.828125 0l0 2.1875q-2.1875 2.328125 -4.34375 6.1875q-2.140625 3.859375 -3.3125 7.9375q-0.84375 2.875 -1.078125 6.296875l-2.890625 0q0.046875 -2.703125 1.0625 -6.53125q1.015625 -3.828125 2.90625 -7.375q1.90625 -3.5625 4.046875 -6.0l-11.21875 0zm17.609375 13.90625l2.953125 -0.25q0.328125 2.15625 1.515625 3.25q1.203125 1.078125 2.890625 1.078125q2.03125 0 3.4375 -1.53125q1.40625 -1.53125 1.40625 -4.0625q0 -2.40625 -1.359375 -3.796875q-1.34375 -1.390625 -3.53125 -1.390625q-1.359375 0 -2.453125 0.625q-1.09375 0.609375 -1.71875 1.59375l-2.640625 -0.34375l2.21875 -11.765625l11.390625 0l0 2.6875l-9.140625 0l-1.234375 6.15625q2.0625 -1.4375 4.328125 -1.4375q3.0 0 5.0625 2.078125q2.0625 2.078125 2.0625 5.34375q0 3.109375 -1.8125 5.375q-2.203125 2.78125 -6.015625 2.78125q-3.125 0 -5.109375 -1.75q-1.96875 -1.75 -2.25 -4.640625zm17.8125 -0.046875l2.8125 -0.375q0.484375 2.390625 1.640625 3.453125q1.171875 1.046875 2.84375 1.046875q1.984375 0 3.34375 -1.375q1.375 -1.375 1.375 -3.40625q0 -1.9375 -1.265625 -3.1875q-1.265625 -1.265625 -3.21875 -1.265625q-0.796875 0 -1.984375 0.3125l0.3125 -2.46875q0.28125 0.03125 0.453125 0.03125q1.796875 0 3.234375 -0.9375q1.4375 -0.9375 1.4375 -2.890625q0 -1.546875 -1.046875 -2.5625q-1.046875 -1.015625 -2.703125 -1.015625q-1.640625 0 -2.734375 1.03125q-1.09375 1.03125 -1.40625 3.09375l-2.8125 -0.5q0.515625 -2.828125 2.34375 -4.375q1.828125 -1.5625 4.546875 -1.5625q1.875 0 3.453125 0.8125q1.578125 0.796875 2.40625 2.1875q0.84375 1.390625 0.84375 2.953125q0 1.484375 -0.796875 2.703125q-0.796875 1.21875 -2.359375 1.9375q2.03125 0.46875 3.15625 1.953125q1.125 1.46875 1.125 3.6875q0 3.0 -2.1875 5.09375q-2.1875 2.078125 -5.53125 2.078125q-3.015625 0 -5.015625 -1.796875q-1.984375 -1.796875 -2.265625 -4.65625z" fill-rule="nonzero"></path><path fill="#000000" fill-opacity="0.0" d="m735.2493 103.61286l0 0c0 13.691879 44.397827 24.791344 99.165344 24.791344c54.767517 0 99.165405 -11.099464 99.165405 -24.791344l0 250.41733c0 13.691895 -44.39789 24.791351 -99.165405 24.791351c-54.767517 0 -99.165344 -11.099457 -99.165344 -24.791351z" fill-rule="evenodd"></path><path fill="#000000" fill-opacity="0.0" d="m735.2493 103.61286l0 0c0 -13.691879 44.397827 -24.791336 99.165344 -24.791336c54.767517 0 99.165405 11.099457 99.165405 24.791336l0 0c0 13.691879 -44.39789 24.791344 -99.165405 24.791344c-54.767517 0 -99.165344 -11.099464 -99.165344 -24.791344z" fill-rule="evenodd"></path><path fill="#000000" fill-opacity="0.0" d="m933.5801 103.61286l0 0c0 13.691879 -44.39789 24.791344 -99.165405 24.791344c-54.767517 0 -99.165344 -11.099464 -99.165344 -24.791344l0 0c0 -13.691879 44.397827 -24.791336 99.165344 -24.791336c54.767517 0 99.165405 11.099457 99.165405 24.791336l0 250.41733c0 13.691895 -44.39789 24.791351 -99.165405 24.791351c-54.767517 0 -99.165344 -11.099457 -99.165344 -24.791351l0 -250.41733" fill-rule="evenodd"></path><path fill="#ffffff" fill-opacity="0.4" d="m735.2493 103.61286l0 0c0 -13.691879 44.397827 -24.791336 99.165344 -24.791336c54.767517 0 99.165405 11.099457 99.165405 24.791336l0 0c0 13.691879 -44.39789 24.791344 -99.165405 24.791344c-54.767517 0 -99.165344 -11.099464 -99.165344 -24.791344z" fill-rule="evenodd"></path><path stroke="#000000" stroke-width="2.0" stroke-linejoin="round" stroke-linecap="butt" d="m933.5801 103.61286l0 0c0 13.691879 -44.39789 24.791344 -99.165405 24.791344c-54.767517 0 -99.165344 -11.099464 -99.165344 -24.791344l0 0c0 -13.691879 44.397827 -24.791336 99.165344 -24.791336c54.767517 0 99.165405 11.099457 99.165405 24.791336l0 250.41733c0 13.691895 -44.39789 24.791351 -99.165405 24.791351c-54.767517 0 -99.165344 -11.099457 -99.165344 -24.791351l0 -250.41733" fill-rule="evenodd"></path><path fill="#000000" d="m756.82874 252.9372l0 -22.90625l8.640625 0q2.28125 0 3.484375 0.21875q1.6875 0.28125 2.828125 1.078125q1.140625 0.78125 1.828125 2.203125q0.703125 1.421875 0.703125 3.125q0 2.921875 -1.859375 4.953125q-1.859375 2.015625 -6.71875 2.015625l-5.875 0l0 9.3125l-3.03125 0zm3.03125 -12.015625l5.921875 0q2.9375 0 4.171875 -1.09375q1.234375 -1.09375 1.234375 -3.078125q0 -1.4375 -0.734375 -2.453125q-0.71875 -1.03125 -1.90625 -1.359375q-0.765625 -0.203125 -2.828125 -0.203125l-5.859375 0l0 8.1875zm18.828125 12.015625l0 -22.90625l3.03125 0l0 22.90625l-3.03125 0zm8.375 0l0 -22.90625l7.890625 0q2.671875 0 4.078125 0.328125q1.96875 0.453125 3.359375 1.640625q1.8125 1.53125 2.703125 3.921875q0.90625 2.375 0.90625 5.4375q0 2.609375 -0.609375 4.625q-0.609375 2.015625 -1.5625 3.34375q-0.953125 1.3125 -2.09375 2.078125q-1.125 0.75 -2.734375 1.140625q-1.59375 0.390625 -3.671875 0.390625l-8.265625 0zm3.03125 -2.703125l4.890625 0q2.265625 0 3.546875 -0.421875q1.296875 -0.421875 2.0625 -1.1875q1.078125 -1.078125 1.671875 -2.890625q0.609375 -1.828125 0.609375 -4.421875q0 -3.59375 -1.1875 -5.515625q-1.171875 -1.9375 -2.859375 -2.59375q-1.21875 -0.46875 -3.921875 -0.46875l-4.8125 0l0 17.5zm20.5 -10.6875l0 -3.203125l3.203125 0l0 3.203125l-3.203125 0zm0 13.390625l0 -3.203125l3.203125 0l0 3.203125l-3.203125 0zm16.640625 -5.296875l2.703125 -0.25q0.34375 1.90625 1.3125 2.765625q0.96875 0.859375 2.484375 0.859375q1.296875 0 2.265625 -0.59375q0.984375 -0.59375 1.609375 -1.578125q0.625 -1.0 1.046875 -2.6875q0.421875 -1.6875 0.421875 -3.4375q0 -0.1875 -0.015625 -0.5625q-0.84375 1.34375 -2.3125 2.1875q-1.453125 0.828125 -3.15625 0.828125q-2.84375 0 -4.8125 -2.0625q-1.96875 -2.0625 -1.96875 -5.4375q0 -3.484375 2.046875 -5.609375q2.0625 -2.125 5.15625 -2.125q2.234375 0 4.078125 1.203125q1.859375 1.203125 2.8125 3.4375q0.96875 2.21875 0.96875 6.4375q0 4.390625 -0.953125 7.0q-0.953125 2.59375 -2.84375 3.953125q-1.875 1.359375 -4.40625 1.359375q-2.6875 0 -4.390625 -1.484375q-1.703125 -1.5 -2.046875 -4.203125zm11.515625 -10.109375q0 -2.421875 -1.296875 -3.84375q-1.28125 -1.421875 -3.09375 -1.421875q-1.875 0 -3.265625 1.53125q-1.390625 1.53125 -1.390625 3.96875q0 2.1875 1.3125 3.5625q1.328125 1.359375 3.265625 1.359375q1.953125 0 3.203125 -1.359375q1.265625 -1.375 1.265625 -3.796875zm16.453125 15.40625l-2.8125 0l0 -17.921875q-1.015625 0.96875 -2.671875 1.9375q-1.640625 0.96875 -2.953125 1.453125l0 -2.71875q2.359375 -1.109375 4.125 -2.6875q1.765625 -1.578125 2.5 -3.0625l1.8125 0l0 23.0zm7.390625 -19.90625l0 -2.703125l14.828125 0l0 2.1875q-2.1875 2.328125 -4.34375 6.1875q-2.140625 3.859375 -3.3125 7.9375q-0.84375 2.875 -1.078125 6.296875l-2.890625 0q0.046875 -2.703125 1.0625 -6.53125q1.015625 -3.828125 2.90625 -7.375q1.90625 -3.5625 4.046875 -6.0l-11.21875 0zm17.609375 13.90625l2.953125 -0.25q0.328125 2.15625 1.515625 3.25q1.203125 1.078125 2.890625 1.078125q2.03125 0 3.4375 -1.53125q1.40625 -1.53125 1.40625 -4.0625q0 -2.40625 -1.359375 -3.796875q-1.34375 -1.390625 -3.53125 -1.390625q-1.359375 0 -2.453125 0.625q-1.09375 0.609375 -1.71875 1.59375l-2.640625 -0.34375l2.21875 -11.765625l11.390625 0l0 2.6875l-9.140625 0l-1.234375 6.15625q2.0625 -1.4375 4.328125 -1.4375q3.0 0 5.0625 2.078125q2.0625 2.078125 2.0625 5.34375q0 3.109375 -1.8125 5.375q-2.203125 2.78125 -6.015625 2.78125q-3.125 0 -5.109375 -1.75q-1.96875 -1.75 -2.25 -4.640625zm28.390625 6.0l-2.8125 0l0 -17.921875q-1.015625 0.96875 -2.671875 1.9375q-1.640625 0.96875 -2.953125 1.453125l0 -2.71875q2.359375 -1.109375 4.125 -2.6875q1.765625 -1.578125 2.5 -3.0625l1.8125 0l0 23.0z" fill-rule="nonzero"></path><path fill="#000000" fill-opacity="0.0" d="m527.86237 292.88397l2.3641968 -29.792908l6.8582764 8.039368l118.07471 -100.69766l-6.8582764 -8.039368l29.797302 2.3645782l-2.3641968 29.792908l-6.8582764 -8.039368l-118.07471 100.69765l6.8582764 8.039368z" fill-rule="evenodd"></path><path stroke="#000000" stroke-width="2.0" stroke-linejoin="round" stroke-linecap="butt" d="m527.86237 292.88397l2.3641968 -29.792908l6.8582764 8.039368l118.07471 -100.69766l-6.8582764 -8.039368l29.797302 2.3645782l-2.3641968 29.792908l-6.8582764 -8.039368l-118.07471 100.69765l6.8582764 8.039368z" fill-rule="evenodd"></path><path fill="#000000" fill-opacity="0.0" d="m510.25024 222.62971l123.90552 -108.28346l27.84253 31.81102l-123.90552 108.28346z" fill-rule="evenodd"></path><path fill="#000000" d="m539.3055 239.78874l-8.201782 -9.370789l1.423645 -1.2441101l1.2451782 1.4226685q-0.32177734 -1.4826508 -0.14074707 -2.2010956q0.19274902 -0.72872925 0.74572754 -1.2119904q0.7999878 -0.699173 2.0881348 -0.91185l0.73339844 1.9529419q-0.87493896 0.1628418 -1.4631958 0.6769409q-0.5177002 0.45240784 -0.6633911 1.1400146q-0.14422607 0.66555786 0.16296387 1.3723907q0.4821167 1.0727539 1.3671265 2.083908l4.29126 4.9029083l-1.5883179 1.3880615zm9.808838 -13.905121l1.8206177 -1.2175598q0.8671875 1.7737274 0.51989746 3.4883423q-0.35766602 1.7028503 -1.993042 3.1320343q-2.058899 1.7993317 -4.371887 1.6003113q-2.3114624 -0.22105408 -4.318115 -2.5137787q-2.0684814 -2.3632812 -1.9989014 -4.7274017q0.08129883 -2.3744202 2.022583 -4.070938q1.8824463 -1.6451111 4.192444 -1.402008q2.3217163 0.2328186 4.348999 2.549057q0.123535156 0.14109802 0.3587036 0.43356323l-6.9885864 6.1074677q1.430481 1.4682617 2.939087 1.6024017q1.508667 0.13414001 2.6851807 -0.89404297q0.87060547 -0.76086426 1.0810547 -1.7540741q0.222229 -1.0034943 -0.29803467 -2.333374zm-7.467163 2.0020294l5.2355347 -4.57547q-1.1349487 -1.0832214 -2.1539307 -1.2510071q-1.5556641 -0.25904846 -2.767517 0.7999878q-1.0941772 0.95622253 -1.1987915 2.3549957q-0.10321045 1.3767242 0.8847046 2.6714935zm18.848022 -8.64859q-0.23406982 1.5118713 -0.77978516 2.549057q-0.5442505 1.015152 -1.4737549 1.8274231q-1.5412598 1.3469391 -3.0351562 1.3244629q-1.4821777 -0.03274536 -2.5112915 -1.2084961q-0.6071167 -0.69369507 -0.79522705 -1.5253906q-0.17626953 -0.84198 0.031188965 -1.6250763q0.19720459 -0.7948456 0.6781616 -1.5264282q0.36767578 -0.52885437 1.2059937 -1.4689941q1.7236938 -1.9213867 2.3518066 -3.030548q-0.26611328 -0.32774353 -0.34838867 -0.4217987q-0.8438721 -0.9641266 -1.6525879 -0.96287537q-1.0734253 -0.016479492 -2.2734985 1.0322876q-1.1294556 0.98706055 -1.309021 1.8495026q-0.18981934 0.85069275 0.4260254 2.0762787l-1.7382202 1.1455841q-0.66296387 -1.1844635 -0.71569824 -2.2174225q-0.052734375 -1.032959 0.5767822 -2.164154q0.6192627 -1.1429596 1.8311157 -2.2019958q1.2000732 -1.0487671 2.2000122 -1.4246216q0.99993896 -0.37586975 1.7337036 -0.2492981q0.7233887 0.11482239 1.4408569 0.64985657q0.4204712 0.33807373 1.3466797 1.3962555l1.852356 2.1163635q1.9346313 2.2104187 2.5550537 2.7057648q0.62042236 0.4953308 1.3879395 0.7791443l-1.6588745 1.4497528q-0.6793213 -0.27790833 -1.3261719 -0.8746338zm-3.2372437 -3.437683q-0.56188965 1.1135864 -2.0753174 2.871933q-0.85302734 0.9944916 -1.1104736 1.5307312q-0.24560547 0.52593994 -0.17071533 1.0622711q0.08660889 0.52604675 0.44683838 0.93756104q0.55566406 0.63490295 1.3967285 0.64689636q0.85284424 0.0017242432 1.7823486 -0.8105469q0.9176636 -0.80200195 1.2854614 -1.828949q0.36779785 -1.0269623 0.09008789 -2.008545q-0.21453857 -0.7670593 -1.1304321 -1.8134766l-0.51452637 -0.58787537zm14.260925 -4.162567l-1.0393677 -1.1875153q0.33044434 2.1805725 -1.3990479 3.6920166q-1.1176758 0.9767761 -2.5940552 1.1879425q-1.4866333 0.19940186 -2.9716187 -0.45339966q-1.4732666 -0.66308594 -2.7390137 -2.1092682q-1.2246094 -1.3991547 -1.763977 -2.940628q-0.5275879 -1.5517731 -0.13323975 -2.9754333q0.4060669 -1.4339447 1.559082 -2.441574q0.84710693 -0.74031067 1.8250122 -0.9516144q0.9793091 -0.2333374 1.8953857 -0.017089844l-4.0648804 -4.6442413l1.5765381 -1.3777771l11.319885 12.933334l-1.4707031 1.2852478zm-9.119507 -0.2891388q1.5745239 1.7989197 3.109558 2.034439q1.546875 0.22525024 2.5822144 -0.6795502q1.0471191 -0.9151001 1.0238647 -2.3888397q-0.02178955 -1.4957886 -1.5447998 -3.2359009q-1.6876831 -1.9282379 -3.2109985 -2.174057q-1.5336304 -0.25756836 -2.6160278 0.68836975q-1.0588989 0.92536926 -1.0150757 2.4226227q0.04534912 1.4752197 1.6712646 3.3329163zm12.0946045 -1.9165802l-7.94751 -16.6483l1.2706909 -1.1104431l7.9592285 16.638016l-1.2824097 1.1207275zm7.743103 -7.161133l-11.06073 -6.8722687l1.635376 -1.429184l6.2279663 4.1026764l2.312683 1.5272827q-0.09844971 -0.1836853 -1.2052612 -2.3497925l-3.3116455 -6.7966003l1.635376 -1.429184l6.154419 4.2084503l2.045105 1.3876343l-1.0435791 -2.2836456l-3.143982 -6.818573l1.5412598 -1.3469391l5.272217 11.9309845l-1.6471558 1.4394684l-6.402893 -4.3025513l-1.7525024 -1.2905731l4.4022827 8.873062l-1.6589355 1.4497528zm11.309448 -9.883499l-8.201782 -9.370789l1.423584 -1.2441101l1.2451782 1.4226532q-0.3217163 -1.4826355 -0.14074707 -2.2010803q0.19274902 -0.7287445 0.74572754 -1.2119904q0.8000488 -0.699173 2.0881958 -0.91185l0.73339844 1.9529419q-0.87493896 0.1628418 -1.4631958 0.6769409q-0.5177002 0.45240784 -0.6633911 1.1400146q-0.14422607 0.66555786 0.16296387 1.3723907q0.4821167 1.0727539 1.3671265 2.083908l4.2911987 4.9029083l-1.5882568 1.3880615zm-3.6730347 -16.378922l-1.6053467 -1.8341827l1.5883179 -1.3880615l1.6053467 1.8341827l-1.5883179 1.3880615zm9.714478 11.099136l-8.201721 -9.370773l1.5883179 -1.3880615l8.201721 9.370773l-1.5883179 1.3880615zm6.22876 -7.954254l1.4598999 1.193512q-0.53686523 0.73890686 -1.0662842 1.2015991q-0.8706665 0.76086426 -1.5897217 0.91200256q-0.71759033 0.12908936 -1.3086548 -0.14289856q-0.57928467 -0.28227234 -1.8244629 -1.7049408l-4.7234497 -5.3967285l-1.1647949 1.0179138l-1.0805054 -1.2345428l1.1647339 -1.0179138l-2.0272827 -2.3162384l0.74298096 -2.3301544l2.8608398 3.2686157l1.6000977 -1.398346l1.0805664 1.2345428l-1.6000977 1.398346l4.795471 5.479019q0.5969238 0.6819458 0.854187 0.809845q0.25878906 0.10586548 0.54992676 0.058929443q0.2808838 -0.058685303 0.6338501 -0.36714172q0.25878906 -0.22621155 0.6427002 -0.66542053zm6.574341 -8.567612l1.8206177 -1.2175598q0.86724854 1.7737274 0.51989746 3.4883423q-0.35760498 1.7028503 -1.992981 3.1320343q-2.05896 1.7993317 -4.371887 1.6003113q-2.3114624 -0.22105408 -4.3181763 -2.5137787q-2.0684204 -2.3632812 -1.9989014 -4.7274017q0.08129883 -2.3744202 2.022583 -4.070938q1.8824463 -1.6451111 4.192444 -1.402008q2.3217773 0.2328186 4.34906 2.549057q0.12347412 0.14109802 0.3587036 0.43356323l-6.9885864 6.1074677q1.4304199 1.4682617 2.939087 1.6024017q1.508606 0.13414001 2.6851196 -0.89404297q0.8706665 -0.76086426 1.0811157 -1.7540741q0.222229 -1.003479 -0.2980957 -2.333374zm-7.467163 2.0020294l5.2355957 -4.57547q-1.1350098 -1.0832214 -2.1539917 -1.2510071q-1.5556641 -0.25904846 -2.767456 0.7999878q-1.0941772 0.95622253 -1.1988525 2.3549957q-0.103149414 1.3767242 0.8847046 2.6714935z" fill-rule="nonzero"></path></g></svg>

