<?xml version="1.0" encoding="UTF-8" standalone="no"?>
<!-- Created with Inkscape (http://www.inkscape.org/) -->

<svg
   xmlns:dc="http://purl.org/dc/elements/1.1/"
   xmlns:cc="http://creativecommons.org/ns#"
   xmlns:rdf="http://www.w3.org/1999/02/22-rdf-syntax-ns#"
   xmlns:svg="http://www.w3.org/2000/svg"
   xmlns="http://www.w3.org/2000/svg"
   xmlns:sodipodi="http://sodipodi.sourceforge.net/DTD/sodipodi-0.dtd"
   xmlns:inkscape="http://www.inkscape.org/namespaces/inkscape"
   width="744.09448819"
   height="1052.3622047"
   id="svg2"
   version="1.1"
   inkscape:version="0.92.1 r15371"
   sodipodi:docname="multiDiagram.svg">
  <sodipodi:namedview
     id="base"
     pagecolor="#ffffff"
     bordercolor="#666666"
     borderopacity="1.0"
     inkscape:pageopacity="0.0"
     inkscape:pageshadow="2"
     inkscape:zoom="3.959798"
     inkscape:cx="151.84412"
     inkscape:cy="879.84558"
     inkscape:document-units="px"
     inkscape:current-layer="layer1"
     showgrid="false"
     inkscape:window-width="1576"
     inkscape:window-height="949"
     inkscape:window-x="976"
     inkscape:window-y="237"
     inkscape:window-maximized="0" />
  <defs
     id="defs4">
    <marker
       style="overflow:visible"
       id="EmptyTriangleInL"
       refX="0.0"
       refY="0.0"
       orient="auto"
       inkscape:stockid="EmptyTriangleInL">
      <path
         transform="scale(-0.8) translate(-6,0)"
         style="fill-rule:evenodd;fill:#FFFFFF;stroke:#000000;stroke-width:1.0pt"
         d="M 5.77,0.0 L -2.88,5.0 L -2.88,-5.0 L 5.77,0.0 z "
         id="path4202" />
    </marker>
    <marker
       style="overflow:visible"
       id="EmptyDiamondLend"
       refX="0.0"
       refY="0.0"
       orient="auto"
       inkscape:stockid="EmptyDiamondLend">
      <path
         transform="scale(0.8) translate(-7,0)"
         style="fill-rule:evenodd;fill:#FFFFFF;stroke:#000000;stroke-width:1.0pt"
         d="M 0,-7.0710768 L -7.0710894,0 L 0,7.0710589 L 7.0710462,0 L 0,-7.0710768 z "
         id="path3921" />
    </marker>
    <marker
       style="overflow:visible"
       id="DiamondMend"
       refX="0.0"
       refY="0.0"
       orient="auto"
       inkscape:stockid="DiamondMend">
      <path
         transform="scale(0.4) translate(-6.5,0)"
         style="fill-rule:evenodd;stroke:#000000;stroke-width:1.0pt"
         d="M 0,-7.0710768 L -7.0710894,0 L 0,7.0710589 L 7.0710462,0 L 0,-7.0710768 z "
         id="path3897" />
    </marker>
    <marker
       inkscape:stockid="Arrow2Lend"
       orient="auto"
       refY="0.0"
       refX="0.0"
       id="Arrow2Lend"
       style="overflow:visible;">
      <path
         id="path3818"
         style="fill-rule:evenodd;stroke-width:0.62500000;stroke-linejoin:round;"
         d="M 8.7185878,4.0337352 L -2.2072895,0.016013256 L 8.7185884,-4.0017078 C 6.9730900,-1.6296469 6.9831476,1.6157441 8.7185878,4.0337352 z "
         transform="scale(1.1) rotate(180) translate(1,0)" />
    </marker>
    <marker
       inkscape:stockid="Arrow1Mend"
       orient="auto"
       refY="0.0"
       refX="0.0"
       id="Arrow1Mend"
       style="overflow:visible;">
      <path
         id="path3806"
         d="M 0.0,0.0 L 5.0,-5.0 L -12.5,0.0 L 5.0,5.0 L 0.0,0.0 z "
         style="fill-rule:evenodd;stroke:#000000;stroke-width:1.0pt;"
         transform="scale(0.4) rotate(180) translate(10,0)" />
    </marker>
    <marker
       inkscape:stockid="Arrow1Lend"
       orient="auto"
       refY="0.0"
       refX="0.0"
       id="Arrow1Lend"
       style="overflow:visible;">
      <path
         id="path3800"
         d="M 0.0,0.0 L 5.0,-5.0 L -12.5,0.0 L 5.0,5.0 L 0.0,0.0 z "
         style="fill-rule:evenodd;stroke:#000000;stroke-width:1.0pt;"
         transform="scale(0.8) rotate(180) translate(12.5,0)" />
    </marker>
    <filter
       inkscape:collect="always"
       id="filter4745"
       x="-0.097924027"
       width="1.1958481"
       y="-0.15492663"
       height="1.3098533">
      <feGaussianBlur
         inkscape:collect="always"
         stdDeviation="3.2560575"
         id="feGaussianBlur4747" />
    </filter>
    <filter
       inkscape:collect="always"
       id="filter4779"
       x="-0.10115007"
       width="1.2023001"
       y="-0.14748466"
       height="1.2949693">
      <feGaussianBlur
         inkscape:collect="always"
         stdDeviation="3.3633262"
         id="feGaussianBlur4781" />
    </filter>
    <marker
       inkscape:stockid="Arrow2Lendg"
       orient="auto"
       refY="0.0"
       refX="0.0"
       id="Arrow2Lendg"
       style="overflow:visible;">
      <path
         id="path4796"
         style="stroke-linejoin:round;stroke:#a05a2c;stroke-width:0.62500000;fill:#a05a2c;fill-rule:evenodd"
         d="M 8.7185878,4.0337352 L -2.2072895,0.016013256 L 8.7185884,-4.0017078 C 6.9730900,-1.6296469 6.9831476,1.6157441 8.7185878,4.0337352 z "
         transform="scale(1.1) rotate(180) translate(1,0)" />
    </marker>
    <filter
       inkscape:collect="always"
       id="filter4745-0"
       x="-0.097924024"
       width="1.1958481"
       y="-0.15492663"
       height="1.3098533"
       color-interpolation-filters="sRGB">
      <feGaussianBlur
         inkscape:collect="always"
         stdDeviation="3.2560575"
         id="feGaussianBlur4747-0" />
    </filter>
    <marker
       style="overflow:visible"
       id="EmptyDiamondLendF"
       refX="0.0"
       refY="0.0"
       orient="auto"
       inkscape:stockid="EmptyDiamondLendF">
      <path
         transform="scale(0.8) translate(-7,0)"
         style="stroke-width:1.0pt;stroke:#a05a2c;fill:#a05a2c;fill-rule:evenodd"
         d="M 0,-7.0710768 L -7.0710894,0 L 0,7.0710589 L 7.0710462,0 L 0,-7.0710768 z "
         id="path5365" />
    </marker>
    <marker
       style="overflow:visible"
       id="EmptyDiamondLendFS"
       refX="0.0"
       refY="0.0"
       orient="auto"
       inkscape:stockid="EmptyDiamondLendFS">
      <path
         transform="scale(0.8) translate(-7,0)"
         style="fill-rule:evenodd;stroke:#a05a2c;stroke-width:1.0pt;fill:#a05a2c"
         d="M 0,-7.0710768 L -7.0710894,0 L 0,7.0710589 L 7.0710462,0 L 0,-7.0710768 z "
         id="path5474" />
    </marker>
    <marker
       style="overflow:visible"
       id="EmptyTriangleInLZ"
       refX="0.0"
       refY="0.0"
       orient="auto"
       inkscape:stockid="EmptyTriangleInLZ">
      <path
         transform="scale(-0.8) translate(-6,0)"
         style="stroke-width:1.0pt;stroke:#a05a2c;fill:#a05a2c;fill-rule:evenodd"
         d="M 5.77,0.0 L -2.88,5.0 L -2.88,-5.0 L 5.77,0.0 z "
         id="path4733" />
    </marker>
    <marker
       inkscape:stockid="Arrow2Lendg"
       orient="auto"
       refY="0"
       refX="0"
       id="Arrow2Lendg-7"
       style="overflow:visible">
      <path
         inkscape:connector-curvature="0"
         id="path4796-7"
         style="fill:#a05a2c;fill-rule:evenodd;stroke:#a05a2c;stroke-width:0.625;stroke-linejoin:round"
         d="M 8.7185878,4.0337352 -2.2072895,0.01601326 8.7185884,-4.0017078 c -1.7454984,2.3720609 -1.7354408,5.6174519 -6e-7,8.035443 z"
         transform="matrix(-1.1,0,0,-1.1,-1.1,0)" />
    </marker>
  </defs>
  <metadata
     id="metadata7">
    <rdf:RDF>
      <cc:Work
         rdf:about="">
        <dc:format>image/svg+xml</dc:format>
        <dc:type
           rdf:resource="http://purl.org/dc/dcmitype/StillImage" />
        <dc:title />
      </cc:Work>
    </rdf:RDF>
  </metadata>
  <g
     inkscape:label="Layer 1"
     inkscape:groupmode="layer"
     id="layer1">
    <rect
       style="fill:#000000;fill-opacity:1;stroke:#000000;stroke-width:1.22679496;stroke-linecap:square;stroke-miterlimit:4;stroke-opacity:1;stroke-dasharray:1.22679493, 1.22679493;stroke-dashoffset:0;filter:url(#filter4779)"
       id="rect2993-1-8"
       width="79.802048"
       height="54.730999"
       x="111.36932"
       y="196.41905"
       ry="10.642139"
       transform="matrix(0.90959259,0,0,0.82416495,59.511632,42.379624)" />
    <rect
       style="fill:#000000;fill-opacity:1;stroke:#000000;stroke-width:1.17772496;stroke-linecap:square;stroke-miterlimit:4;stroke-opacity:1;stroke-dasharray:1.177725, 1.177725;stroke-dashoffset:0;filter:url(#filter4745)"
       id="rect2993-9"
       width="79.802048"
       height="50.44025"
       x="110.60283"
       y="120.71289"
       ry="9.807827"
       transform="matrix(1.1604537,0,0,0.90611554,-30.06408,10.544116)" />
    <rect
       style="fill:#ffe680;fill-opacity:1;stroke:#a05a2c;stroke-width:1.33280313;stroke-linecap:square;stroke-miterlimit:4;stroke-opacity:1;stroke-dasharray:1.33280316, 1.33280316;stroke-dashoffset:0"
       id="rect2993"
       width="102.20174"
       height="50.44025"
       x="90.57473"
       y="112.98769"
       ry="9.807827" />
    <text
       xml:space="preserve"
       style="font-style:normal;font-weight:normal;line-height:0%;font-family:sans-serif;letter-spacing:0px;word-spacing:0px;fill:#212178;fill-opacity:1;stroke:none"
       x="96.686394"
       y="128.77742"
       id="text3763"><tspan
         sodipodi:role="line"
         id="tspan3765"
         x="96.686394"
         y="128.77742"
         style="font-style:normal;font-variant:normal;font-weight:normal;font-stretch:normal;font-size:14px;line-height:1.25;font-family:Verdana;-inkscape-font-specification:Verdana;fill:#212178">A</tspan></text>
    <rect
       style="fill:#ffe680;fill-opacity:1;stroke:#a05a2c;stroke-width:1.16698635;stroke-linecap:square;stroke-miterlimit:4;stroke-opacity:1;stroke-dasharray:1.16698629, 1.16698629;stroke-dashoffset:0"
       id="rect2993-1"
       width="79.861855"
       height="49.487507"
       x="154.01836"
       y="197.49069"
       ry="9.622571" />
    <path
       style="fill:#000000;stroke:#000000;stroke-width:1px;stroke-linecap:butt;stroke-linejoin:miter;stroke-opacity:1;marker-start:url(#EmptyTriangleInL)"
       d="m 157.9923,163.45382 21.19073,34.06275"
       id="path3791"
       inkscape:connector-type="polyline"
       inkscape:connector-curvature="0"
       inkscape:connection-start-point="d4"
       inkscape:connection-end-point="d4" />
    <text
       xml:space="preserve"
       style="font-style:normal;font-weight:normal;line-height:0%;font-family:sans-serif;letter-spacing:0px;word-spacing:0px;fill:#212178;fill-opacity:1;stroke:none"
       x="94.715187"
       y="143.84848"
       id="text3763-2"><tspan
         sodipodi:role="line"
         id="tspan3765-5"
         x="94.715187"
         y="143.84848"
         style="font-style:normal;font-variant:normal;font-weight:normal;font-stretch:normal;font-size:12px;line-height:1.25;font-family:Verdana;-inkscape-font-specification:Verdana;fill:#212178">int f(int)</tspan></text>
    <path
       style="fill:none;stroke:#a05a2c;stroke-width:1.13167608px;stroke-linecap:butt;stroke-linejoin:miter;stroke-opacity:1"
       d="m 91.221568,132.19443 101.554902,0"
       id="path4695"
       inkscape:connector-curvature="0" />
    <path
       style="fill:none;stroke:#a05a2c;stroke-width:1px;stroke-linecap:butt;stroke-linejoin:miter;stroke-opacity:1"
       d="m 154.80587,216.56247 79.29698,0"
       id="path4695-6"
       inkscape:connector-curvature="0" />
    <rect
       style="fill:#000000;fill-opacity:1;stroke:#000000;stroke-width:1.17772496;stroke-linecap:square;stroke-miterlimit:4;stroke-opacity:1;stroke-dasharray:1.177725, 1.177725;stroke-dashoffset:0;filter:url(#filter4745-0)"
       id="rect2993-9-8"
       width="79.802048"
       height="50.44025"
       x="110.60283"
       y="120.71289"
       ry="9.807827"
       transform="matrix(1.1124362,0,0,0.90611554,88.402052,11.497794)" />
    <rect
       style="fill:#ffe680;fill-opacity:1;stroke:#a05a2c;stroke-width:1.30493724;stroke-linecap:square;stroke-miterlimit:4;stroke-opacity:1;stroke-dasharray:1.30493733, 1.30493733;stroke-dashoffset:0"
       id="rect2993-3"
       width="97.972809"
       height="50.44025"
       x="204.04906"
       y="113.94137"
       ry="9.807827" />
    <text
       xml:space="preserve"
       style="font-style:normal;font-weight:normal;line-height:0%;font-family:sans-serif;letter-spacing:0px;word-spacing:0px;fill:#212178;fill-opacity:1;stroke:none"
       x="211.62537"
       y="127.73111"
       id="text3763-24"><tspan
         sodipodi:role="line"
         id="tspan3765-0"
         x="211.62537"
         y="127.73111"
         style="font-style:normal;font-variant:normal;font-weight:normal;font-stretch:normal;font-size:12px;line-height:1.25;font-family:Verdana;-inkscape-font-specification:Verdana;fill:#212178">B</tspan></text>
    <path
       style="fill:none;stroke:#a05a2c;stroke-width:1.1080153px;stroke-linecap:butt;stroke-linejoin:miter;stroke-opacity:1"
       d="m 204.66912,133.1481 97.35274,0"
       id="path4695-9"
       inkscape:connector-curvature="0" />
    <path
       style="fill:#000000;stroke:#000000;stroke-width:1px;stroke-linecap:butt;stroke-linejoin:miter;stroke-opacity:1;marker-start:url(#EmptyTriangleInL)"
       d="m 233.71517,166.07325 -26.5165,30.80964"
       id="path3791-2"
       inkscape:connector-type="polyline"
       inkscape:connector-curvature="0"
       sodipodi:nodetypes="cc" />
    <text
       xml:space="preserve"
       style="font-style:normal;font-weight:normal;line-height:0%;font-family:sans-serif;letter-spacing:0px;word-spacing:0px;fill:#212178;fill-opacity:1;stroke:none"
       x="207.94249"
       y="144.12038"
       id="text3763-2-55"><tspan
         sodipodi:role="line"
         id="tspan3765-5-4"
         x="207.94249"
         y="144.12038"
         style="font-style:normal;font-variant:normal;font-weight:normal;font-stretch:normal;font-size:12px;line-height:1.25;font-family:Verdana;-inkscape-font-specification:Verdana;fill:#212178">int f(int)</tspan></text>
    <text
       xml:space="preserve"
       style="font-style:normal;font-weight:normal;line-height:0%;font-family:sans-serif;letter-spacing:0px;word-spacing:0px;fill:#212178;fill-opacity:1;stroke:none"
       x="158.01302"
       y="241.53979"
       id="text3763-2-5-2"><tspan
         sodipodi:role="line"
         id="tspan3765-5-6-5"
         x="158.01302"
         y="241.53979"
         style="font-style:normal;font-variant:normal;font-weight:normal;font-stretch:normal;font-size:12px;line-height:1.25;font-family:Verdana;-inkscape-font-specification:Verdana;fill:#212178">int c</tspan></text>
    <text
       xml:space="preserve"
       style="font-style:normal;font-weight:normal;line-height:0%;font-family:sans-serif;letter-spacing:0px;word-spacing:0px;fill:#212178;fill-opacity:1;stroke:none"
       x="207.9525"
       y="156.11198"
       id="text3763-2-5-2-9"><tspan
         sodipodi:role="line"
         id="tspan3765-5-6-5-4"
         x="207.9525"
         y="156.11198"
         style="font-style:normal;font-variant:normal;font-weight:normal;font-stretch:normal;font-size:12px;line-height:1.25;font-family:Verdana;-inkscape-font-specification:Verdana;fill:#212178">int b</tspan></text>
    <text
       xml:space="preserve"
       style="font-style:normal;font-weight:normal;line-height:0%;font-family:sans-serif;letter-spacing:0px;word-spacing:0px;fill:#212178;fill-opacity:1;stroke:none"
       x="94.310341"
       y="155.6069"
       id="text3763-2-5-2-8"><tspan
         sodipodi:role="line"
         id="tspan3765-5-6-5-6"
         x="94.310341"
         y="155.6069"
         style="font-style:normal;font-variant:normal;font-weight:normal;font-stretch:normal;font-size:12px;line-height:1.25;font-family:Verdana;-inkscape-font-specification:Verdana;fill:#212178">int a</tspan></text>
    <text
       xml:space="preserve"
       style="font-style:normal;font-weight:normal;line-height:0%;font-family:sans-serif;letter-spacing:0px;word-spacing:0px;fill:#212178;fill-opacity:1;stroke:none"
       x="158.93025"
       y="212.25726"
       id="text3763-24-0"><tspan
         sodipodi:role="line"
         id="tspan3765-0-9"
         x="158.93025"
         y="212.25726"
         style="font-style:normal;font-variant:normal;font-weight:normal;font-stretch:normal;font-size:12px;line-height:1.25;font-family:Verdana;-inkscape-font-specification:Verdana;fill:#212178">C</tspan></text>
  </g>
</svg>
